{
    "groceries": [ {
        "sku-id" : "100001A",
        "title": "Apple",
        "product_image": "apple",
        "details": "Nature fresh kashimir apples",
        "price" : 3.99
    },
    {
        "sku-id" : "100002A",
        "title": "Watermelon",
        "product_image": "watermelon",
        "details": "African yammy pineapple",
        "price" : 5.99
    },
    {
        "sku-id" : "100003A",
        "title": "PineApple",
        "product_image": "pineApple",
        "details": "Red ride watermelons",
        "price" : 4.99
    },
    {
        "sku-id" : "100004A",
        "title": "Mellon",
        "product_image": "mellon",
        "details": "Delicioos fruit mellon",
        "price" : 3.01
    },
    {
        "sku-id" : "100005A",
        "title": "Mango",
        "product_image": "mango",
        "details": "Mango fruits",
        "price" : 4.99
    }]
 
}
